ec\com\library\core\repositories\administracion\impl\LibroAutorRepositoryImpl.class
ec\com\library\application\factory\LibraryFactory.class
ec\com\library\application\services\administracion\ICategoriaService.class
ec\com\library\core\repositories\HibernateRepository.class
ec\com\library\core\repositories\administracion\impl\AutorRepositoryImpl.class
ec\com\library\application\services\administracion\IAdministracionService.class
ec\com\library\core\entities\LibroAutor.class
ec\com\library\core\entities\Libro.class
ec\com\library\application\services\administracion\IEditorialCategoriaService.class
ec\com\library\application\services\IServices.class
ec\com\library\core\entities\EditorialCategoria.class
ec\com\library\core\entities\Editorial.class
ec\com\library\application\services\administracion\IAutorService.class
ec\com\library\application\services\administracion\impl\LibroServiceImpl.class
ec\com\library\application\services\administracion\impl\CategoriaServiceImpl.class
ec\com\library\core\Exception\LibraryGenericException.class
ec\com\library\application\services\administracion\IEditorialService.class
ec\com\library\application\services\administracion\impl\AutorServiceImpl.class
ec\com\library\application\services\administracion\ILibroService.class
ec\com\library\core\entities\Estanteria.class
ec\com\library\application\services\administracion\ILibroAutorService.class
ec\com\library\core\repositories\administracion\IAutorRepository.class
ec\com\library\core\repositories\administracion\IEditorialCategoriaRepository.class
ec\com\library\core\repositories\administracion\IEditorialRepository.class
ec\com\library\core\repositories\administracion\impl\LibroRepositoryImpl.class
ec\com\library\core\entities\Autor.class
ec\com\library\application\services\administracion\impl\EstanteriaServiceImpl.class
ec\com\library\core\repositories\administracion\impl\CategoriaRepositoryImpl.class
ec\com\library\application\services\administracion\impl\EditorialServiceImpl.class
ec\com\library\application\services\administracion\impl\EditorialCategoriaServiceImpl.class
ec\com\library\core\repositories\administracion\IEstanteriaRepository.class
ec\com\library\core\repositories\administracion\impl\EditorialCategoriaRepositoryImpl.class
ec\com\library\core\repositories\administracion\impl\EstanteriaRepositoryImpl.class
ec\com\library\application\services\administracion\impl\AdministracionServiceImpl.class
ec\com\library\core\repositories\administracion\ICategoriaRepository.class
ec\com\library\core\repositories\ICrud.class
ec\com\library\application\services\administracion\IEstanteriaService.class
ec\com\library\application\services\administracion\impl\LibroAutorServiceImpl.class
ec\com\library\core\entities\Audit.class
ec\com\library\core\repositories\administracion\ILibroRepository.class
ec\com\library\core\repositories\administracion\impl\EditorialRepositoryImpl.class
ec\com\library\core\repositories\administracion\ILibroAutorRepository.class
ec\com\library\core\entities\Categoria.class
